…
``` r
MC.graph <- scdb_mc2d("QPCTL_Tum_MC2")

coords <- tibble( cellcode = names(MC.graph@sc_y),
                  sc.x = MC.graph@sc_x,
                  sc.y = MC.graph@sc_y)
coords
```

    ## # A tibble: 5,042 × 3
    ##    cellcode            sc.x  sc.y
    ##    <chr>              <dbl> <dbl>
    ##  1 AAACCCACAATCAAGA-1  242. 361. 
    ##  2 AAACCCAGTCCCTGAG-1  296. 237. 
    ##  3 AAACCCATCGTCGCTT-1  203. 103. 
    ##  4 AAACCCATCTTCGATT-1  223. 140. 
    ##  5 AAACGAAAGGACGCAT-1  282. 203. 
    ##  6 AAACGAACATATCTGG-1  180.  44.5
    ##  7 AAACGAAGTCACTACA-1  330. 204. 
    ##  8 AAACGAAGTGCAGATG-1  241. 353. 
    ##  9 AAACGAATCGTTAGTG-1  167.  33.8
    ## 10 AAACGCTAGAATGTTG-1  184.  62.0
    ## # … with 5,032 more rows
…
``` r
mat.obj <- scdb_mat("QPCTL_exp_Tum")

mat.obj@cell_metadata %>% 
  select(new_hash.ID) %>% 
  as_tibble(rownames = "cellcode") %>% 
  filter(str_detect(new_hash.ID, "HTO")) %>% 
  mutate(sample = fct_recode(new_hash.ID, WT_1 = "HTO1", WT_2 = "HTO2", WT_3 = "HTO3",
                                          KO_1 = "HTO4", KO_2 = "HTO5", KO_3 = "HTO6")) -> hashtags

hashtags
```

    ## # A tibble: 8,704 × 3
    ##    cellcode           new_hash.ID sample
    ##    <chr>              <chr>       <fct> 
    ##  1 AAACCCAAGTGATGGC-1 HTO4        KO_1  
    ##  2 AAACCCACAATCAAGA-1 HTO3        WT_3  
    ##  3 AAACCCAGTCCCTGAG-1 HTO4        KO_1  
    ##  4 AAACCCATCGTCGCTT-1 HTO1        WT_1  
    ##  5 AAACCCATCTTCGATT-1 HTO1        WT_1  
    ##  6 AAACGAAAGGACGCAT-1 HTO6        KO_3  
    ##  7 AAACGAACAATACAGA-1 HTO1        WT_1  
    ##  8 AAACGAACATATCTGG-1 HTO6        KO_3  
    ##  9 AAACGAAGTCACTACA-1 HTO2        WT_2  
    ## 10 AAACGAAGTGCAGATG-1 HTO4        KO_1  
    ## # … with 8,694 more rows
Combine with MetaCells and normalize within samples.

``` r
mc@mc %>% 
  enframe(name = "cellcode", value = "MetaCell") %>% 
  inner_join(hashtags) %>% 
  count(MetaCell, sample) %>%
  group_by(sample)%>%
  mutate(normalized.count = (n/sum(n))*1000 ) %>% 
  mutate(MetaCell = as.factor(MetaCell) ) -> sample.counts

sample.counts
```

    ## # A tibble: 72 × 4
    ## # Groups:   sample [6]
    ##    MetaCell sample     n normalized.count
    ##    <fct>    <fct>  <int>            <dbl>
    ##  1 1        WT_1      84            110. 
    ##  2 1        WT_2      51            113. 
    ##  3 1        WT_3      29             53.5
    ##  4 1        KO_1     182            137. 
    ##  5 1        KO_2      25             44.2
    ##  6 1        KO_3      89             63.8
    ##  7 2        WT_1     139            182. 
    ##  8 2        WT_2      47            104. 
    ##  9 2        WT_3      75            138. 
    ## 10 2        KO_1     161            121. 
    ## # … with 62 more rows
…
