…
Calculate differentially expressed genes between KO and WT.

``` r
Idents(seurat.object) <- "genotype"
marks <- FindMarkers(object = seurat.object, ident.1 = 'KO', ident.2 = 'WT', logfc.threshold = 0, test.use = "wilcox", min.pct = 0.1)

marks <- as_tibble(marks, rownames = "gene")

write_tsv(marks, here("Output", "tumor_KOvsWT_marks.tsv"))

marks
```

    ## # A tibble: 8,752 × 6
    ##    gene     p_val avg_log2FC pct.1 pct.2 p_val_adj
    ##    <chr>    <dbl>      <dbl> <dbl> <dbl>     <dbl>
    ##  1 B2m   1.68e-77      0.266 0.935 0.899  5.22e-73
    ##  2 Psmb9 4.35e-66      0.262 0.246 0.054  1.35e-61
    ##  3 H2-D1 2.27e-61      0.264 0.769 0.653  7.05e-57
    ##  4 Gbp7  3.58e-52      0.258 0.293 0.111  1.11e-47
    ##  5 Psmb8 8.03e-52      0.250 0.206 0.049  2.49e-47
    ##  6 Gbp2  5.77e-51      0.269 0.227 0.064  1.79e-46
    ##  7 Igtp  2.80e-45      0.230 0.2   0.053  8.71e-41
    ##  8 Cyba  3.52e-45     -0.173 0.459 0.673  1.09e-40
    ##  9 Bst2  5.31e-45      0.238 0.736 0.609  1.65e-40
    ## 10 Iigp1 1.26e-43      0.272 0.171 0.038  3.93e-39
    ## # … with 8,742 more rows
…
``` r
marks %>% 
  filter(p_val < 0.05) %>%  
  select(gene, avg_log2FC) %>% 
  deframe() %>% 
  sort(decreasing = T) -> stats
```

``` r
fgseaRes <- fgseaMultilevel(pathways, stats, eps = 0, minSize = 10)

(fgseaRes <- as_tibble(fgseaRes))
```

    ## # A tibble: 45 × 8
    ##    pathway                pval      padj log2err     ES    NES  size leadingEdge
    ##    <chr>                 <dbl>     <dbl>   <dbl>  <dbl>  <dbl> <int> <list>     
    ##  1 HALLMARK_ADIPOGEN… 3.83e- 1   5.07e-1  0.0838 -0.199 -1.06     62 <chr [8]>  
    ##  2 HALLMARK_ALLOGRAF… 2.00e-10   2.25e-9  0.827   0.728  3.27     30 <chr [15]> 
    ##  3 HALLMARK_ANDROGEN… 4.22e- 1   5.27e-1  0.0796 -0.237 -1.03     29 <chr [14]> 
    ##  4 HALLMARK_APICAL_J… 1.01e- 3   5.68e-3  0.455  -0.425 -2.01     38 <chr [19]> 
    ##  5 HALLMARK_APOPTOSIS 8.34e- 2   1.71e-1  0.288   0.294  1.50     46 <chr [14]> 
    ##  6 HALLMARK_BILE_ACI… 6.77e- 1   7.25e-1  0.0552 -0.243 -0.832    14 <chr [5]>  
    ##  7 HALLMARK_CHOLESTE… 4.75e- 2   1.19e-1  0.322  -0.396 -1.59     22 <chr [13]> 
    ##  8 HALLMARK_COAGULAT… 1.35e- 2   4.67e-2  0.381  -0.483 -1.78     17 <chr [6]>  
    ##  9 HALLMARK_COMPLEME… 7.99e- 2   1.71e-1  0.249   0.335  1.50     30 <chr [8]>  
    ## 10 HALLMARK_DNA_REPA… 8.42e- 1   8.42e-1  0.0644  0.148  0.712    38 <chr [27]> 
    ## # … with 35 more rows
…
``` r
pathways.hallmark <- as.data.frame(msigdbr(species = "Mus musculus", category = "C2"))
pathways <- split(pathways.hallmark$gene_symbol, pathways.hallmark$gs_name)
```

Perform GSEA

``` r
fgseaRes <- fgseaMultilevel(pathways, stats, eps = 0, minSize = 10)

(fgseaRes <- as_tibble(fgseaRes))
```

    ## # A tibble: 2,530 × 8
    ##    pathway                  pval    padj log2err     ES    NES  size leadingEdge
    ##    <chr>                   <dbl>   <dbl>   <dbl>  <dbl>  <dbl> <int> <list>     
    ##  1 ABBUD_LIF_SIGNALING_… 3.08e-4 0.00280  0.498   0.745  2.25     10 <chr [5]>  
    ##  2 ABRAMSON_INTERACT_WI… 8.07e-1 0.887    0.0483 -0.237 -0.705    10 <chr [7]>  
    ##  3 ACEVEDO_LIVER_CANCER… 1.48e-1 0.301    0.143  -0.205 -1.25    120 <chr [28]> 
    ##  4 ACEVEDO_LIVER_CANCER… 2.49e-3 0.0156   0.432   0.231  1.69    225 <chr [27]> 
    ##  5 ACEVEDO_LIVER_CANCER… 3.41e-1 0.507    0.114   0.290  1.10     20 <chr [6]>  
    ##  6 ACEVEDO_LIVER_CANCER… 4.56e-1 0.608    0.0738 -0.236 -1.01     30 <chr [7]>  
    ##  7 ACEVEDO_LIVER_CANCER… 1.13e-1 0.253    0.171  -0.442 -1.42     12 <chr [6]>  
    ##  8 ACEVEDO_LIVER_CANCER… 9.18e-1 0.957    0.0417 -0.171 -0.590    15 <chr [5]>  
    ##  9 ACEVEDO_LIVER_TUMOR_… 3.18e-1 0.488    0.0931 -0.231 -1.11     44 <chr [8]>  
    ## 10 ACEVEDO_LIVER_TUMOR_… 1.25e-1 0.269    0.209   0.166  1.20    206 <chr [29]> 
    ## # … with 2,520 more rows
…
