…
    ## Warning: Unknown columns: `Cxcl11`, `H2-Bl`, `Ifi30`, `Marchf1`, `Mx2`

``` r
IFN.gene.expression
```

    ## # A tibble: 10,153 × 206
    ##    cellcode     Adar   Apol6 Arid5b  Arl4a   Auts2     B2m   Bank1  Batf2   Bpgm
    ##    <chr>       <dbl>   <dbl>  <dbl>  <dbl>   <dbl>   <dbl>   <dbl>  <dbl>  <dbl>
    ##  1 AAACCCAAG… -0.493 -0.0887 -0.729 -0.527 -0.0516  0.0164 -0.0199 -0.172  2.11 
    ##  2 AAACCCAAG… -0.493 -0.0887  0.716 -0.527 -0.0516 -0.860  -0.0199 -0.172 -0.643
    ##  3 AAACCCAAG… -0.493 -0.0887 -0.729  2.79  -0.0516 -0.234  -0.0199 -0.172 -0.643
    ##  4 AAACCCAAG… -0.493 -0.0887  0.716 -0.527 -0.0516  0.238  -0.0199 -0.172  2.11 
    ##  5 AAACCCAAG… -0.493 -0.0887 -0.729 -0.527 -0.0516 -0.522  -0.0199 -0.172  2.11 
    ##  6 AAACCCACA… -0.493 -0.0887  0.716 -0.527 -0.0516 -0.860  -0.0199 -0.172 -0.643
    ##  7 AAACCCACA… -0.493 -0.0887 -0.729  1.53  -0.0516  1.33   -0.0199 -0.172 -0.643
    ##  8 AAACCCACA…  1.69  -0.0887 -0.729 -0.527 -0.0516 -0.234  -0.0199 -0.172 -0.643
    ##  9 AAACCCAGT… -0.493 -0.0887  0.716  2.79  -0.0516 -0.234  -0.0199 -0.172 -0.643
    ## 10 AAACCCAGT…  1.69  -0.0887 -0.729 -0.527 -0.0516  0.238  -0.0199 -0.172 -0.643
    ## # … with 10,143 more rows, and 196 more variables: Bst2 <dbl>, Btg1 <dbl>,
    ## #   C1rb <dbl>, C1s2 <dbl>, Casp1 <dbl>, Casp3 <dbl>, Casp4 <dbl>, Casp7 <dbl>,
    ## #   Casp8 <dbl>, Ccl2 <dbl>, Ccl5 <dbl>, Ccl7 <dbl>, Cd274 <dbl>, Cd38 <dbl>,
    ## #   Cd40 <dbl>, Cd69 <dbl>, Cd74 <dbl>, Cd86 <dbl>, Cdkn1a <dbl>, Cfb <dbl>,
    ## #   Cfh <dbl>, Ciita <dbl>, Cmklr1 <dbl>, Cmpk2 <dbl>, Cmtr1 <dbl>,
    ## #   Csf2rb2 <dbl>, Cxcl10 <dbl>, Cxcl9 <dbl>, Ddx58 <dbl>, Ddx60 <dbl>,
    ## #   Dhx58 <dbl>, Eif2ak2 <dbl>, Eif4e3 <dbl>, Epsti1 <dbl>, Fas <dbl>, …
…
prep for plotting.

``` r
IFN.gene.expression %>% 
  pivot_longer(!cellcode, names_to = "gene", values_to =  "umi") %>% 
  left_join(enframe(mc@mc, "cellcode", "MC")) %>% 
  na.omit() %>% 
  mutate(MC = as.factor(MC)) %>% 
  filter(gene %in% select.genes) -> violin.data

violin.data
```

    ## # A tibble: 170,442 × 4
    ##    cellcode           gene       umi MC   
    ##    <chr>              <chr>    <dbl> <fct>
    ##  1 AAACCCACAATCAAGA-1 B2m     -0.860 2    
    ##  2 AAACCCACAATCAAGA-1 Bst2    -0.929 2    
    ##  3 AAACCCACAATCAAGA-1 Cd74    -0.297 2    
    ##  4 AAACCCACAATCAAGA-1 Cxcl10  -0.427 2    
    ##  5 AAACCCACAATCAAGA-1 Ddx58    1.73  2    
    ##  6 AAACCCACAATCAAGA-1 Eif2ak2 -0.691 2    
    ##  7 AAACCCACAATCAAGA-1 Gbp3    -0.275 2    
    ##  8 AAACCCACAATCAAGA-1 Herc6   -0.581 2    
    ##  9 AAACCCACAATCAAGA-1 Ifi35   -0.494 2    
    ## 10 AAACCCACAATCAAGA-1 Ifit3   -0.249 2    
    ## # … with 170,432 more rows
…
