…
## Import and tidy

Import the cytosig dataset. Each column represents a cytokine treatment
experiment on a cell model under certain conditions. Each row represents
a target gene. Each value is a log2 fold change between treatment and
control conditions.

``` r
cytosig.data <- read_tsv(here( "Data", "Cytosig", "diff.merge"))

cytosig.data
```

    ## # A tibble: 19,918 × 2,057
    ##    Gene     `TGFB1@Condition… `TGFB1@Conditio… `IFNA&Duration:… `IFNA&Duration:…
    ##    <chr>                <dbl>            <dbl>            <dbl>            <dbl>
    ##  1 A1BG              -0.0995           0.114             0.0238       -0.0261   
    ##  2 A1BG-AS1          -0.120            0.0128           -0.0326       -0.0000583
    ##  3 A1CF               0.00718          0.00718           0.117        -0.110    
    ##  4 A2M                1.05            -0.242             0.0392       -0.00126  
    ##  5 A4GALT             0.391           -0.632            -0.0101        0.182    
    ##  6 A4GNT              0               -0.0244            0.128        -0.0402   
    ##  7 AAAS              -0.808           -0.132            -0.0533        0.0782   
    ##  8 AACS              -0.488           -0.0374           -0.0364        0.0176   
    ##  9 AADAC              0.191            0.0488            0.100        -0.0996   
    ## 10 AADAT              0.0553           0.330             0.0463        0.0731   
    ## # … with 19,908 more rows, and 2,052 more variables:
    ## #   IFNA&Duration:1h@Condition:Huh7@GSE48400.MicroArray.GPL10558 <dbl>,
    ## #   IFNA&Duration:24h@Condition:Huh7@GSE48400.MicroArray.GPL10558 <dbl>,
    ## #   IFNA&Duration:2h@Condition:Huh7@GSE48400.MicroArray.GPL10558 <dbl>,
    ## #   IFNA&Duration:4h@Condition:Huh7@GSE48400.MicroArray.GPL10558 <dbl>,
    ## #   IFNA&Duration:6h@Condition:Huh7@GSE48400.MicroArray.GPL10558 <dbl>,
    ## #   IFNB&Duration:0.5h@Condition:Huh7@GSE48400.MicroArray.GPL10558 <dbl>, …

Select only to columns that relate to our cytokines of interest, switch
to long form, and extract cytokine identity into a separate column.

``` r
cytosig.data %>% 
  select(Gene, contains("IFNA"), contains("IFNB"), contains("IFNG")) %>% 
  pivot_longer(cols = -Gene, names_to = "assay", values_to = "FC") %>% 
  mutate(cytokine = str_extract(assay, "^IFN\\w{1}")) -> cytosig.IFN

cytosig.IFN
```

    ## # A tibble: 8,126,544 × 4
    ##    Gene  assay                                                       FC cytokine
    ##    <chr> <chr>                                                    <dbl> <chr>   
    ##  1 A1BG  IFNA&Duration:0.5h@Condition:Huh7@GSE48400.MicroArra…  0.0238  IFNA    
    ##  2 A1BG  IFNA&Duration:12h@Condition:Huh7@GSE48400.MicroArray… -0.0261  IFNA    
    ##  3 A1BG  IFNA&Duration:1h@Condition:Huh7@GSE48400.MicroArray.…  0.0232  IFNA    
    ##  4 A1BG  IFNA&Duration:24h@Condition:Huh7@GSE48400.MicroArray… -0.0114  IFNA    
    ##  5 A1BG  IFNA&Duration:2h@Condition:Huh7@GSE48400.MicroArray.… -0.0377  IFNA    
    ##  6 A1BG  IFNA&Duration:4h@Condition:Huh7@GSE48400.MicroArray.… -0.0328  IFNA    
    ##  7 A1BG  IFNA&Duration:6h@Condition:Huh7@GSE48400.MicroArray.… -0.0535  IFNA    
    ##  8 A1BG  IFNA@Condition:SLE keratinocytes@GSE124939.RNASeq.SR… -0.00718 IFNA    
    ##  9 A1BG  IFNA@Condition:normal keratinocytes@GSE124939.RNASeq…  0.00718 IFNA    
    ## 10 A1BG  IFNA&Duration:12h@Condition:BE(2)-C@GSE16450.MicroAr…  0.183   IFNA    
    ## # … with 8,126,534 more rows
…
``` r
cytosig.IFN %>% 
  na.omit() %>% 
  group_by(Gene, cytokine) %>% 
  summarise(score = median(FC, na.rm = T)) %>% 
  pivot_wider(names_from = cytokine, values_from = score) -> cytosig.IFN

cytosig.IFN
```

    ## # A tibble: 18,292 × 4
    ## # Groups:   Gene [18,292]
    ##    Gene         IFNA     IFNB     IFNG
    ##    <chr>       <dbl>    <dbl>    <dbl>
    ##  1 A1BG     -0.0157  -0.00898 -0.0135 
    ##  2 A1BG-AS1 -0.0436  -0.0275   0      
    ##  3 A1CF     -0.00677 -0.0130   0.00104
    ##  4 A2M      -0.00775  0        0.0640 
    ##  5 A2ML1     0.00521  0        0      
    ##  6 A4GALT   -0.0210  -0.00614 -0.0310 
    ##  7 A4GNT     0       -0.00796 -0.0148 
    ##  8 AAAS     -0.0315  -0.0709  -0.0566 
    ##  9 AACS     -0.0165  -0.0272  -0.0676 
    ## 10 AACSP1    0        0        0      
    ## # … with 18,282 more rows
…
Import the results

``` r
cytosig.files <- list.files(here( "Data", "Cytosig"), pattern = "Cytosig")

here( "Data", "Cytosig", cytosig.files) %>% 
  map(read_csv) %>% 
  set_names(str_extract(cytosig.files, "MC\\d+")) %>% 
  enframe("MetaCell", "data") %>% 
  unnest(cols = data) -> cytosig.results

cytosig.results
```

    ## # A tibble: 516 × 6
    ##    MetaCell ID       Coef  StdErr Zscore Pvalue
    ##    <chr>    <chr>   <dbl>   <dbl>  <dbl>  <dbl>
    ##  1 MC1      IL12   0.0214 0.00408   5.26      0
    ##  2 MC1      LIF   -0.0215 0.00445  -4.80      0
    ##  3 MC1      IL6   -0.0425 0.00428  -9.91      0
    ##  4 MC1      IL4   -0.0235 0.00455  -5.20      0
    ##  5 MC1      IL36  -0.0138 0.00383  -3.60      0
    ##  6 MC1      IL3    0.0163 0.00430   3.81      0
    ##  7 MC1      IL2    0.0216 0.00411   5.25      0
    ##  8 MC1      TGFB1 -0.0150 0.00408  -3.67      0
    ##  9 MC1      TGFB3 -0.0666 0.00401 -16.6       0
    ## 10 MC1      IL15   0.0193 0.00405   4.80      0
    ## # … with 506 more rows
…
