…
``` r
MC.graph <- scdb_mc2d("QPCTL_Imm_MC")

coords <- tibble( cellcode = names(MC.graph@sc_y),
                  sc.x = MC.graph@sc_x,
                  sc.y = MC.graph@sc_y)
coords
```

    ## # A tibble: 1,555 × 3
    ##    cellcode            sc.x  sc.y
    ##    <chr>              <dbl> <dbl>
    ##  1 AAACGCTCACGCTTAA-1  144. 400. 
    ##  2 AAAGAACGTTGCTCGG-1  327. 204. 
    ##  3 AAAGAACTCTCGCGTT-1  159. 284. 
    ##  4 AAAGGATAGTTCGCAT-1  312. 190. 
    ##  5 AAAGGATGTCAATCTG-1  333. 135. 
    ##  6 AAAGGATTCGTTAGAC-1  179.  57.9
    ##  7 AAAGGTATCAAACCCA-1  346. 378. 
    ##  8 AAAGTCCGTTAGGCCC-1  206. 295. 
    ##  9 AAAGTGACATAGACTC-1  327. 193. 
    ## 10 AAAGTGATCATCGCCT-1  232. 221. 
    ## # … with 1,545 more rows
…
seurat.obj %>% 
  GetAssayData( slot = "data", assay = "RNA")%>% 
#  as.matrix() %>%
  t() %>% 
  as.data.frame() %>% 
  as_tibble(rownames = "cellcode") %>% 
  select(one_of(c("cellcode", genes))) -> expression.data

expression.data
```

    ## # A tibble: 1,956 × 21
    ##    cellcode   Itgam Adgre1  Cd3e  Cd8a  Apoe  Mrc1 Fcgr1  C1qc  Cd81  C1qa   Pf4
    ##    <chr>      <dbl>  <dbl> <dbl> <dbl> <dbl> <dbl> <dbl> <dbl> <dbl> <dbl> <dbl>
    ##  1 AAACGAAAG…  0     0     0     0     1.79   1.10 0.541 1.13  1.54  1.58  2.08 
    ##  2 AAACGCTCA…  0     0     0     0     0      0    0     0     0     0     0    
    ##  3 AAAGAACGT…  0     0     0     0     1.34   0    0     0     0     0.258 1.82 
    ##  4 AAAGAACTC…  0     0     0     0     1.16   0    0.541 0     0     0     0    
    ##  5 AAAGGATAG…  0     0.534 0     0     1.21   1.10 0.890 0     0     0     2.97 
    ##  6 AAAGGATGT…  0     0     0     0     1.21   1.10 0     1.83  0.477 1.84  2.00 
    ##  7 AAAGGATTC…  0     0.880 0     0     0.579  1.10 1.15  0.300 0.477 0.464 0.647
    ##  8 AAAGGTATC…  0     0     0.679 0.679 0.146  0    0     0     0     0     0.265
    ##  9 AAAGGTATC…  0     0     0     0     0.880  1.10 0     1.50  0     0.779 2.89 
    ## 10 AAAGTCCAG…  1.47  0.534 0     0     1.06   2.09 0.541 1.42  1.66  1.97  3.02 
    ## # … with 1,946 more rows, and 9 more variables: Lyz1 <dbl>, H2-Aa <dbl>,
    ## #   Vcan <dbl>, Mertk <dbl>, Ccr2 <dbl>, Ccr7 <dbl>, Ly6c2 <dbl>, Ms4a4c <dbl>,
    ## #   Plac8 <dbl>
…
``` r
mat.obj <- scdb_mat("QPCTL_exp_Imm")

mat.obj@cell_metadata %>% 
  select(new_hash.ID) %>% 
  as_tibble(rownames = "cellcode") %>% 
  filter(str_detect(new_hash.ID, "HTO")) %>% 
  mutate(sample = fct_recode(new_hash.ID, WT_1 = "HTO1", WT_2 = "HTO2", WT_3 = "HTO3",
                                          KO_1 = "HTO4", KO_2 = "HTO5", KO_3 = "HTO6")) -> hashtags

hashtags
```

    ## # A tibble: 8,704 × 3
    ##    cellcode           new_hash.ID sample
    ##    <chr>              <chr>       <fct> 
    ##  1 AAACCCAAGTGATGGC-1 HTO4        KO_1  
    ##  2 AAACCCACAATCAAGA-1 HTO3        WT_3  
    ##  3 AAACCCAGTCCCTGAG-1 HTO4        KO_1  
    ##  4 AAACCCATCGTCGCTT-1 HTO1        WT_1  
    ##  5 AAACCCATCTTCGATT-1 HTO1        WT_1  
    ##  6 AAACGAAAGGACGCAT-1 HTO6        KO_3  
    ##  7 AAACGAACAATACAGA-1 HTO1        WT_1  
    ##  8 AAACGAACATATCTGG-1 HTO6        KO_3  
    ##  9 AAACGAAGTCACTACA-1 HTO2        WT_2  
    ## 10 AAACGAAGTGCAGATG-1 HTO4        KO_1  
    ## # … with 8,694 more rows
Combine with MetaCells and normalize within samples.

``` r
mc@mc %>% 
  enframe(name = "cellcode", value = "MetaCell") %>% 
  inner_join(hashtags) %>% 
  count(MetaCell, sample) %>%
  group_by(sample)%>%
  mutate(normalized.count = (n/sum(n))*1000 ) %>% 
  mutate(MetaCell = as.factor(MetaCell) ) -> sample.counts

sample.counts
```

    ## # A tibble: 63 × 4
    ## # Groups:   sample [6]
    ##    MetaCell sample     n normalized.count
    ##    <fct>    <fct>  <int>            <dbl>
    ##  1 1        WT_1       5            139. 
    ##  2 1        WT_2       7             48.6
    ##  3 1        WT_3      35            171. 
    ##  4 1        KO_1       6             39.0
    ##  5 1        KO_2       3             37.5
    ##  6 1        KO_3      11            121. 
    ##  7 2        WT_1       3             83.3
    ##  8 2        WT_2       8             55.6
    ##  9 2        WT_3      12             58.5
    ## 10 2        KO_1      58            377. 
    ## # … with 53 more rows
…
