…
``` r
immune.sce <- fitGAM(counts = expr, sds = SlingshotDataSet(immune.sce), nknots = 5)
```

Next, test for dynamic expression, output will have genes associated
with pseudotime

``` r
assoRes <- associationTest(immune.sce)

(assoRes <- as_tibble(assoRes, rownames = "gene"))
```

    ## # A tibble: 443 × 5
    ##    gene    waldStat    df   pvalue meanLogFC
    ##    <chr>      <dbl> <dbl>    <dbl>     <dbl>
    ##  1 Ptpn18   14.6        3 0.00219     0.259 
    ##  2 Map4k4    0.0468     3 0.997       0.0180
    ##  3 Slc40a1   1.70       3 0.636       2.54  
    ##  4 Stat1     0.462      3 0.927       0.0547
    ##  5 Hspe1    13.0        3 0.00466     0.124 
    ##  6 Fn1     136.         3 0           0.866 
    ##  7 Pid1      5.93       3 0.115       0.101 
    ##  8 Ncl       3.57       3 0.311       0.255 
    ##  9 Ptma     20.0        3 0.000169    0.199 
    ## 10 Arl4c    14.3        3 0.00252     0.266 
    ## # … with 433 more rows
…
Make dataframe containing pseudotimes per cellcode

``` r
lineages %>%
  as_tibble(rownames = "cellcode") %>% 
  dplyr::rename( pseudotime = "curve1") %>% 
  drop_na() -> pseudotimes

pseudotimes
```

    ## # A tibble: 423 × 2
    ##    cellcode           pseudotime
    ##    <chr>                   <dbl>
    ##  1 AAAGAACTCTCGCGTT-1      185. 
    ##  2 AAAGTCCGTTAGGCCC-1      181. 
    ##  3 AAATGGAGTATTAAGG-1      109. 
    ##  4 AAATGGAGTTGCATAC-1      177. 
    ##  5 AAATGGATCAAATGAG-1       68.2
    ##  6 AACAAAGTCGTTACCC-1      100. 
    ##  7 AACAAGAGTCATCCCT-1       34.1
    ##  8 AACAGGGCAAACCACT-1      280. 
    ##  9 AACAGGGCAAGCACAG-1      256. 
    ## 10 AACCATGTCGAAGAAT-1      251. 
    ## # … with 413 more rows
…
logexpr[genes,] %>% 
  as_tibble(rownames = "gene") %>% 
  pivot_longer(cols = -gene, names_to = "cellcode", values_to = "logcount") %>% 
  filter(cellcode %in% pseudotimes$cellcode) %>% 
  group_by(gene) %>% 
  mutate(scaled_counts = scale_this(logcount)) -> logcounts

logcounts
```

    ## # A tibble: 61,758 × 4
    ## # Groups:   gene [146]
    ##    gene  cellcode           logcount scaled_counts
    ##    <chr> <chr>                 <dbl>         <dbl>
    ##  1 Fn1   AAAGAACTCTCGCGTT-1     1.88        0.0847
    ##  2 Fn1   AAAGTCCGTTAGGCCC-1     2.37        0.396 
    ##  3 Fn1   AAATGGAGTATTAAGG-1     0          -1.12  
    ##  4 Fn1   AAATGGAGTTGCATAC-1     0          -1.12  
    ##  5 Fn1   AAATGGATCAAATGAG-1     3.58        1.18  
    ##  6 Fn1   AACAAAGTCGTTACCC-1     3.32        1.01  
    ##  7 Fn1   AACAAGAGTCATCCCT-1     0          -1.12  
    ##  8 Fn1   AACAGGGCAAACCACT-1     1.93        0.113 
    ##  9 Fn1   AACAGGGCAAGCACAG-1     3.17        0.913 
    ## 10 Fn1   AACCATGTCGAAGAAT-1     0          -1.12  
    ## # … with 61,748 more rows

Make combined table with pseudotimes, GAM-cluster and gene-expression

``` r
pseudotimes %>% 
  left_join(logcounts, by = "cellcode") %>% 
  left_join(gene.cluster, by = "gene") -> GAM.data

GAM.data
```

    ## # A tibble: 61,758 × 6
    ##    cellcode           pseudotime gene   logcount scaled_counts cluster
    ##    <chr>                   <dbl> <chr>     <dbl>         <dbl>   <int>
    ##  1 AAAGAACTCTCGCGTT-1       185. Fn1        1.88        0.0847       1
    ##  2 AAAGAACTCTCGCGTT-1       185. Creg1      0          -0.830        2
    ##  3 AAAGAACTCTCGCGTT-1       185. Fcgr4      1.88        1.33         3
    ##  4 AAAGAACTCTCGCGTT-1       185. Fcer1g     4.13        1.25         3
    ##  5 AAAGAACTCTCGCGTT-1       185. Tagln2     1.88        0.100        1
    ##  6 AAAGAACTCTCGCGTT-1       185. Ifi207     1.88        1.12         3
    ##  7 AAAGAACTCTCGCGTT-1       185. Ifi204     2.50        1.31         3
    ##  8 AAAGAACTCTCGCGTT-1       185. Vim        2.50       -0.259        1
    ##  9 AAAGAACTCTCGCGTT-1       185. Mrc1       0          -1.15         2
    ## 10 AAAGAACTCTCGCGTT-1       185. Thbs1      0          -0.425        4
    ## # … with 61,748 more rows
…
sample.counts
```

    ## # A tibble: 423 × 5
    ##    cellcode           hash.ID count normalized.count genotype
    ##    <chr>              <fct>   <dbl>            <dbl> <fct>   
    ##  1 AAAGAACTCTCGCGTT-1 HTO5        1            22.7  KO      
    ##  2 AAAGTCCGTTAGGCCC-1 HTO1        1            20.4  WT      
    ##  3 AAATGGAGTATTAAGG-1 HTO6        1            16.4  KO      
    ##  4 AAATGGAGTTGCATAC-1 HTO2        1            23.3  WT      
    ##  5 AAATGGATCAAATGAG-1 HTO2        1            23.3  WT      
    ##  6 AACAAAGTCGTTACCC-1 HTO5        1            22.7  KO      
    ##  7 AACAAGAGTCATCCCT-1 HTO5        1            22.7  KO      
    ##  8 AACAGGGCAAACCACT-1 HTO3        1             9.90 WT      
    ##  9 AACAGGGCAAGCACAG-1 HTO3        1             9.90 WT      
    ## 10 AACCATGTCGAAGAAT-1 HTO3        1             9.90 WT      
    ## # … with 413 more rows
…
``` r
sample.counts %>% 
  left_join(pseudotimes, by = "cellcode") %>% 
  pivot_wider(names_from = genotype,values_from =  normalized.count, values_fill = 0) %>% 
  arrange(desc(pseudotime))  %>%
  # Get rolling sums
  mutate(WT_sums = roll_sum(x = WT, n = 60, by = 1, align = "center", fill = NA), 
         KO_sums = roll_sum(x = KO, n = 60, by = 1, align = "center" , fill = NA)) -> rolling.sums

rolling.sums
```

    ## # A tibble: 423 × 8
    ##    cellcode           hash.ID count pseudotime    KO    WT WT_sums KO_sums
    ##    <chr>              <fct>   <dbl>      <dbl> <dbl> <dbl>   <dbl>   <dbl>
    ##  1 GTTACGAGTAGGATAT-1 HTO3        1       305.   0    9.90      NA      NA
    ##  2 CCACTTGGTTTGCCGG-1 HTO2        1       302.   0   23.3       NA      NA
    ##  3 ACCCAAATCGCAGTTA-1 HTO3        1       301.   0    9.90      NA      NA
    ##  4 TACCTCGTCTGGCCTT-1 HTO1        1       300.   0   20.4       NA      NA
    ##  5 TAATCTCAGGTTCTTG-1 HTO3        1       298.   0    9.90      NA      NA
    ##  6 TGACTCCTCGGCTGTG-1 HTO3        1       297.   0    9.90      NA      NA
    ##  7 TTCTAACCATCCGAAT-1 HTO2        1       295.   0   23.3       NA      NA
    ##  8 GTCACGGGTGAATTGA-1 HTO6        1       295.  16.4  0         NA      NA
    ##  9 CCGATCTTCTTCGATT-1 HTO3        1       293.   0    9.90      NA      NA
    ## 10 GATGACTGTCTCGGGT-1 HTO3        1       290.   0    9.90      NA      NA
    ## # … with 413 more rows
…
