…
# Import and reformat data

The authors uploaded a meta data table with cell annotations, and the
10x files for each of the treatments. Note that the cluster labels no
not correspond to the published manuscript. THe myeloid cells are in the
upper-left cluster, i.e. GraphCluster 0, 1, 2, 4 and 7.

``` r
meta <- read_tsv(here("Data", "ICB_data", "GSE119352_scRNAseq_CD45_meta_data.tsv"))

meta
```

    ## # A tibble: 14,493 × 5
    ##    ...1             tSNE_1 tSNE_2 GraphCluster Sample 
    ##    <chr>             <dbl>  <dbl>        <dbl> <chr>  
    ##  1 AAACATACAGCGTT-1  -1.90 -29.0            10 Control
    ##  2 AAACATACATTTCC-1 -10.6   -6.27            0 Control
    ##  3 AAACATACCCAACA-1 -22.1   -6.00            0 Control
    ##  4 AAACATACCCTTGC-1 -14.4   -6.24            1 Control
    ##  5 AAACATACTATGGC-1  -4.28 -10.3             0 Control
    ##  6 AAACATTGCAATCG-1   2.31   2.30            0 Control
    ##  7 AAACATTGCTCCCA-1 -25.4    6.91            1 Control
    ##  8 AAACATTGCTTGGA-1 -23.8   -6.67            1 Control
    ##  9 AAACATTGGGTATC-1 -35.7   10.5             1 Control
    ## 10 AAACATTGGTTTGG-1 -34.0   11.0             1 Control
    ## # … with 14,483 more rows
…
``` r
meta %>% 
  filter(GraphCluster %in% c(0,1,2,4,7)) %>% 
  select(...1, GraphCluster) %>% 
  deframe() -> cluster.info
seurat.obj <- AddMetaData(seurat.obj, cluster.info, col.name = "GraphCluster")

seurat.obj <- SetIdent(seurat.obj, value = "GraphCluster")
myeloid.markers <- FindAllMarkers(seurat.obj, min.pct = 0.2, logfc.threshold = 0,  only.pos = F)

(myeloid.markers <- as_tibble(myeloid.markers))
```

    ## # A tibble: 7,162 × 7
    ##        p_val avg_log2FC pct.1 pct.2 p_val_adj cluster gene 
    ##        <dbl>      <dbl> <dbl> <dbl>     <dbl> <fct>   <chr>
    ##  1 0              0.492 0.942 0.644 0         0       Plac8
    ##  2 1.11e-302     -0.592 0.157 0.596 3.11e-298 0       Cd63 
    ##  3 2.41e-301     -0.693 0.182 0.62  6.74e-297 0       Arg1 
    ##  4 1.69e-267     -0.405 0.781 0.919 4.73e-263 0       Ctsb 
    ##  5 2.38e-265     -0.468 0.383 0.742 6.66e-261 0       Ctsl 
    ##  6 1.36e-251     -0.564 0.119 0.514 3.82e-247 0       Ms4a7
    ##  7 1.10e-225     -0.444 0.551 0.801 3.09e-221 0       Lgmn 
    ##  8 9.22e-218     -0.491 0.462 0.789 2.58e-213 0       C1qa 
    ##  9 9.49e-218     -0.586 0.068 0.426 2.66e-213 0       Pf4  
    ## 10 1.09e-216     -0.246 1     1     3.05e-212 0       Ftl1 
    ## # … with 7,152 more rows
…
``` r
lfp %>% 
  as_tibble( rownames = "gene") %>% 
  select(gene, `1` , `2`, `3`) %>% 
  set_names("gene", "MC1", "MC2", "MC3") %>%
  pivot_longer(-gene, names_to = "Metacell", values_to = "lfp") %>% 
  inner_join(myeloid.markers) %>%  
  filter(p_val_adj < 0.05)  -> combined.data

combined.data
```

    ## # A tibble: 14,355 × 9
    ##    gene  Metacell     lfp    p_val avg_log2FC pct.1 pct.2 p_val_adj cluster
    ##    <chr> <chr>      <dbl>    <dbl>      <dbl> <dbl> <dbl>     <dbl> <fct>  
    ##  1 Tcea1 MC1       0.154  4.99e- 8    -0.0536 0.176 0.236  1.40e- 3 2      
    ##  2 Tcea1 MC2      -0.0920 4.99e- 8    -0.0536 0.176 0.236  1.40e- 3 2      
    ##  3 Tcea1 MC3       0.0568 4.99e- 8    -0.0536 0.176 0.236  1.40e- 3 2      
    ##  4 Tram1 MC1       0.425  1.78e-10    -0.0699 0.202 0.271  4.98e- 6 2      
    ##  5 Tram1 MC1       0.425  8.48e- 9     0.0635 0.326 0.244  2.37e- 4 4      
    ##  6 Tram1 MC2       0.156  1.78e-10    -0.0699 0.202 0.271  4.98e- 6 2      
    ##  7 Tram1 MC2       0.156  8.48e- 9     0.0635 0.326 0.244  2.37e- 4 4      
    ##  8 Tram1 MC3       0.211  1.78e-10    -0.0699 0.202 0.271  4.98e- 6 2      
    ##  9 Tram1 MC3       0.211  8.48e- 9     0.0635 0.326 0.244  2.37e- 4 4      
    ## 10 Rpl7  MC1       0.383  4.95e-20    -0.0847 0.844 0.87   1.38e-15 0      
    ## # … with 14,345 more rows
…
