…
``` r
Idents(seurat.obj) <- "genotype"
marks <- FindMarkers(object = seurat.obj, ident.1 = 'KO', ident.2 = 'WT', 
                     logfc.threshold = 0, test.use = "wilcox", min.pct = 0.1, slot = "counts")
```

And save data.

``` r
marks <- as_tibble(marks, rownames = "gene")

arrange(marks, desc(avg_log2FC))
```

    ## # A tibble: 4,733 × 6
    ##    gene         p_val avg_log2FC pct.1 pct.2 p_val_adj
    ##    <chr>        <dbl>      <dbl> <dbl> <dbl>     <dbl>
    ##  1 Ccl5     0.00279        1.68  0.524 0.309         1
    ##  2 Ccl3     0.0000627      1.46  0.305 0.036         1
    ##  3 Ccl4     0.0000779      1.29  0.381 0.091         1
    ##  4 Gzmb     0.00145        1.23  0.324 0.091         1
    ##  5 Nkg7     0.000324       1.07  0.514 0.218         1
    ##  6 Prf1     0.000358       1.06  0.324 0.073         1
    ##  7 Ccl8     0.107          0.928 0.143 0.055         1
    ##  8 Ly6a     0.000402       0.917 0.552 0.309         1
    ##  9 AW112010 0.000791       0.869 0.619 0.364         1
    ## 10 Top2a    0.00157        0.823 0.39  0.145         1
    ## # … with 4,723 more rows
…
