…
Get log2 gene-enrichment values. And add iCAF/myCAF annotation

``` r
mc@mc_fp %>% 
  log2() %>% 
  as_tibble(rownames = "gene") %>% 
  mutate(signature = case_when(gene %in% iCAF ~ "iCAF",
                               gene %in% myCAF ~ "myCAF",
                               TRUE ~ "none")) %>% 
  pivot_longer(cols = -c(gene, signature), names_to = "MC",values_to = "lfp" ) -> lfp

lfp  
```

    ## # A tibble: 52,775 × 4
    ##    gene   signature MC        lfp
    ##    <chr>  <chr>     <chr>   <dbl>
    ##  1 Mrpl15 none      1      0.140 
    ##  2 Mrpl15 none      2      0.161 
    ##  3 Mrpl15 none      3     -0.0422
    ##  4 Mrpl15 none      4      0     
    ##  5 Mrpl15 none      5     -0.194 
    ##  6 Lypla1 none      1     -0.0727
    ##  7 Lypla1 none      2      0.0450
    ##  8 Lypla1 none      3      0     
    ##  9 Lypla1 none      4      0.0552
    ## 10 Lypla1 none      5     -0.131 
    ## # … with 52,765 more rows
…
## Plot CAF ratio’s

Import Seurat object and count cells

``` r
full.seurat <- read_rds(here("Data", "seurat_Fibr.rds"))

enframe(full.seurat$hash.ID, "cellcode", "Hashtag") %>% 
  right_join(enframe(as.factor(mc@mc), "cellcode", "MC")) %>% 
  count(Hashtag, MC) -> cell.counts

cell.counts
```

    ## # A tibble: 29 × 3
    ##    Hashtag MC        n
    ##    <chr>   <fct> <int>
    ##  1 HTO1    1        13
    ##  2 HTO1    2        21
    ##  3 HTO1    3         6
    ##  4 HTO1    4         3
    ##  5 HTO2    1        21
    ##  6 HTO2    2        40
    ##  7 HTO2    3        20
    ##  8 HTO2    4         8
    ##  9 HTO2    5        13
    ## 10 HTO3    1        37
    ## # … with 19 more rows
…
