…
Reads were aligned to the pre-built GRCm38 genome_snp_tran reference
using HISAT250, and transcript counts were obtained using an in-house
generated pipeline [GenSum](https://github.com/NKI-GCF/gensum)

Import the required packages

Import the RNAseq dataframe. All samples are in this table.

``` r
(rna.data <- read_tsv(file = "./Data/all_gene_counts_bulkRNA_QPCTL.tsv", col_types = cols(chromosome_name = "c")))
```

    ## # A tibble: 55,487 × 55
    ##    ensembl_gene_id    Sample_6362_1_LN1 Sample_6362_2_LN2 Sample_6362_3_LN3
    ##    <chr>                          <dbl>             <dbl>             <dbl>
    ##  1 <NA>                               0                 0                 0
    ##  2 ENSMUSG00000064842                 0                 0                 0
    ##  3 ENSMUSG00000051951                 0                 0                 0
    ##  4 ENSMUSG00000102851                 0                 0                 0
    ##  5 ENSMUSG00000103377                 0                 0                 0
    ##  6 ENSMUSG00000104017                 0                 0                 0
    ##  7 ENSMUSG00000103025                 0                 0                 0
    ##  8 ENSMUSG00000089699                 0                 0                 0
    ##  9 ENSMUSG00000103201                 0                 0                 0
    ## 10 ENSMUSG00000103147                 0                 0                 0
    ## # … with 55,477 more rows, and 51 more variables: Sample_6362_4_LN4 <dbl>,
    ## #   Sample_6362_5_LN5 <dbl>, Sample_6362_6_LN6 <dbl>, Sample_6362_7_LN7 <dbl>,
    ## #   Sample_6362_8_LN8 <dbl>, Sample_6362_9_Spleen1 <dbl>,
    ## #   Sample_6362_10_Spleen2 <dbl>, Sample_6362_11_Spleen3 <dbl>,
    ## #   Sample_6362_12_Spleen4 <dbl>, Sample_6362_13_Spleen5 <dbl>,
    ## #   Sample_6362_14_Spleen6 <dbl>, Sample_6362_15_Spleen7 <dbl>,
    ## #   Sample_6362_16_Spleen8 <dbl>, Sample_6362_17_BM1 <dbl>, …
…
### Subset and tidy data

Lets first take a look at the transcriptomes of the organs at steady
state. Select those columns, plus the external gene identifier, and
remove rows that contain `NA`.

``` r
rna.data %>% 
  dplyr::select( c(contains(c( "external_gene_id")), 2:25) ) %>% 
  na.omit() -> steady.state.data 

steady.state.data
```

    ## # A tibble: 55,486 × 25
    ##    external_gene_id Sample_6362_1_LN1 Sample_6362_2_LN2 Sample_6362_3_LN3
    ##    <chr>                        <dbl>             <dbl>             <dbl>
    ##  1 Gm26206                          0                 0                 0
    ##  2 Xkr4                             0                 0                 0
    ##  3 Gm18956                          0                 0                 0
    ##  4 Gm37180                          0                 0                 0
    ##  5 Gm37363                          0                 0                 0
    ##  6 Gm37686                          0                 0                 0
    ##  7 Gm1992                           0                 0                 0
    ##  8 Gm37329                          0                 0                 0
    ##  9 Gm7341                           0                 0                 0
    ## 10 Gm38148                          0                 0                 0
    ## # … with 55,476 more rows, and 21 more variables: Sample_6362_4_LN4 <dbl>,
    ## #   Sample_6362_5_LN5 <dbl>, Sample_6362_6_LN6 <dbl>, Sample_6362_7_LN7 <dbl>,
    ## #   Sample_6362_8_LN8 <dbl>, Sample_6362_9_Spleen1 <dbl>,
    ## #   Sample_6362_10_Spleen2 <dbl>, Sample_6362_11_Spleen3 <dbl>,
    ## #   Sample_6362_12_Spleen4 <dbl>, Sample_6362_13_Spleen5 <dbl>,
    ## #   Sample_6362_14_Spleen6 <dbl>, Sample_6362_15_Spleen7 <dbl>,
    ## #   Sample_6362_16_Spleen8 <dbl>, Sample_6362_17_BM1 <dbl>, …

Next, trash rows that have no reads, and in case of double gene_ids,
select the one with the highest read-count

``` r
steady.state.data %>% 
  mutate(sum_counts = rowSums(dplyr::select(.,2:25)) ) %>% 
  filter(sum_counts > 0 ) %>% 
  group_by(external_gene_id) %>%
  top_n(1, sum_counts) -> steady.state.data

steady.state.data
```

    ## # A tibble: 24,324 × 26
    ## # Groups:   external_gene_id [24,324]
    ##    external_gene_id Sample_6362_1_LN1 Sample_6362_2_LN2 Sample_6362_3_LN3
    ##    <chr>                        <dbl>             <dbl>             <dbl>
    ##  1 Gm37180                          0                 0                 0
    ##  2 Sox17                            1                 3                 0
    ##  3 Gm37587                          1                 0                 1
    ##  4 Gm6085                           0                 0                 0
    ##  5 Gm6123                           1                 1                 2
    ##  6 Mrpl15                           1                 2                 1
    ##  7 Lypla1                           0                 3                 0
    ##  8 Tcea1                            0                 2                 1
    ##  9 Gm6104                           0                 0                 2
    ## 10 Gm37277                          1                 1                 1
    ## # … with 24,314 more rows, and 22 more variables: Sample_6362_4_LN4 <dbl>,
    ## #   Sample_6362_5_LN5 <dbl>, Sample_6362_6_LN6 <dbl>, Sample_6362_7_LN7 <dbl>,
    ## #   Sample_6362_8_LN8 <dbl>, Sample_6362_9_Spleen1 <dbl>,
    ## #   Sample_6362_10_Spleen2 <dbl>, Sample_6362_11_Spleen3 <dbl>,
    ## #   Sample_6362_12_Spleen4 <dbl>, Sample_6362_13_Spleen5 <dbl>,
    ## #   Sample_6362_14_Spleen6 <dbl>, Sample_6362_15_Spleen7 <dbl>,
    ## #   Sample_6362_16_Spleen8 <dbl>, Sample_6362_17_BM1 <dbl>, …
…
<img src="bulk_RNAseq_analyses_files/figure-gfm/DE_test-1.png" style="display: block; margin: auto;" />

Get results, perform FDR correction for P values, and write data.

``` r
qlf$table %>% 
  as_tibble(rownames = "gene") %>% 
  mutate(FDR = p.adjust(PValue, method = "fdr")) -> DE.results

DE.results
```

    ## # A tibble: 11,340 × 6
    ##    gene            logFC logCPM         F    PValue    FDR
    ##    <chr>           <dbl>  <dbl>     <dbl>     <dbl>  <dbl>
    ##  1 Mrpl15        -0.865    4.80  4.15     0.0452    0.287 
    ##  2 Lypla1        -0.0917   4.05  0.0287   0.866     0.945 
    ##  3 Tcea1         -0.452    4.67  1.05     0.309     0.634 
    ##  4 Atp6v1h       -1.16     4.63  5.37     0.0232    0.225 
    ##  5 Rb1cc1        -0.710    4.00  1.54     0.218     0.549 
    ##  6 4732440D04Rik -0.0158   3.69  0.000529 0.982     0.993 
    ##  7 Pcmtd1        -0.960    4.19  3.12     0.0814    0.362 
    ##  8 Rrs1           0.0642   5.61  0.0512   0.822     0.928 
    ##  9 Adhfe1        -0.120    3.71  0.0344   0.853     0.938 
    ## 10 2610203C22Rik  1.05     6.58 19.3      0.0000366 0.0170
    ## # … with 11,330 more rows
…
Join with DE results.

``` r
pathways %>% 
  select(gene_symbol, gs_name) %>% 
  rename(gene = gene_symbol) %>% 
  inner_join(DE.results) -> DE.results.path

DE.results.path
```

    ## # A tibble: 4,731 × 7
    ##    gene    gs_name                  logFC logCPM         F  PValue   FDR
    ##    <chr>   <chr>                    <dbl>  <dbl>     <dbl>   <dbl> <dbl>
    ##  1 Abcb8   HALLMARK_ADIPOGENESIS -0.486     4.54 1.27      0.264   0.598
    ##  2 Acaa2   HALLMARK_ADIPOGENESIS -0.306     3.50 0.179     0.674   0.858
    ##  3 Acadl   HALLMARK_ADIPOGENESIS -0.266     5.38 0.742     0.392   0.696
    ##  4 Acadm   HALLMARK_ADIPOGENESIS -0.398     4.22 0.600     0.441   0.733
    ##  5 Acads   HALLMARK_ADIPOGENESIS -0.508     3.84 0.702     0.405   0.706
    ##  6 Acly    HALLMARK_ADIPOGENESIS -0.515     7.08 5.59      0.0206  0.214
    ##  7 Aco2    HALLMARK_ADIPOGENESIS -0.626     7.29 9.63      0.00271 0.104
    ##  8 Acox1   HALLMARK_ADIPOGENESIS  0.0885    6.20 0.123     0.727   0.887
    ##  9 Adcy6   HALLMARK_ADIPOGENESIS -0.00242   4.29 0.0000196 0.996   0.998
    ## 10 Adipor2 HALLMARK_ADIPOGENESIS -0.183     5.12 0.258     0.613   0.829
    ## # … with 4,721 more rows
…
Can also calculate signature sums per sample and plot those. First
subset and tidy data.

``` r
countsPerMillion %>% 
  as_tibble(rownames = "gene") %>% 
  inner_join(pathways, by = c("gene" = "gene_symbol")) %>% 
  filter(gs_name %in% paths) %>% 
  pivot_longer(cols = contains("Tum"), names_to = "sample", values_to = "cpm") %>% 
  select(gene, sample, gs_name, cpm) -> cpm.data

cpm.data
```

    ## # A tibble: 9,372 × 4
    ##    gene  sample  gs_name                   cpm
    ##    <chr> <chr>   <chr>                   <dbl>
    ##  1 Cops5 S37_Tum HALLMARK_MYC_TARGETS_V1 31.5 
    ##  2 Cops5 S38_Tum HALLMARK_MYC_TARGETS_V1 19.3 
    ##  3 Cops5 S39_Tum HALLMARK_MYC_TARGETS_V1 12.9 
    ##  4 Cops5 S41_Tum HALLMARK_MYC_TARGETS_V1 27.7 
    ##  5 Cops5 S42_Tum HALLMARK_MYC_TARGETS_V1 23.0 
    ##  6 Cops5 S43_Tum HALLMARK_MYC_TARGETS_V1 14.0 
    ##  7 Cops5 S44_Tum HALLMARK_MYC_TARGETS_V1 23.2 
    ##  8 Cops5 S45_Tum HALLMARK_MYC_TARGETS_V1 19.1 
    ##  9 Cops5 S46_Tum HALLMARK_MYC_TARGETS_V1 11.1 
    ## 10 Cops5 S47_Tum HALLMARK_MYC_TARGETS_V1  4.94
    ## # … with 9,362 more rows
…
api
```

    ## [1] "https://string-db.org/api/tsv/network?identifiers=2610203C22Rik%0dMterf4%0dTeddm2%0dSoat1%0dTraf3ip3%0dGm32926%0dGm30346%0d4930404N11Rik%0d1810014B01Rik%0dDnajc14%0dOgdh%0dUgp2%0dGm10425%0dGm40578%0dAkt1%0dLgals3%0dDct%0dOxct1%0dFzd6%0dSt3gal1%0dGm16537%0dGalnt6os%0dMapk1%0dTfrc%0d9530082P21Rik%0dMlst8%0dEme2%0dStub1%0dGgnbp1%0dGm20496%0dGm16172%0dBysl%0dGm50087%0dSyt4%0dTxnl1%0dAtp5a1%0dScd2%0dAcvr2a%0dRapgef2%0dPsmb4%0dAtp1a1%0dGbp5%0dSdcbp%0dTyrp1%0dLuzp1%0dGm43808%0dArt3%0dTctn1%0d4932422M17Rik%0dMet%0dGpnmb%0dMalsu1%0dGm43292%0dWdr54%0dAtg7%0dFbxo46%0dPsmd8%0dGpi1%0dFtl1%0dLdha%0dRps3%0dGm45205%0dBnip3%0dGm15655%0dTpm1%0d5830418P13Rik%0dCtnnb1%0dmt-Rnr1%0dmt-Nd6%0dSlc25a5%0dAtrx%0dCox7b%0dPgk1&species=10090"

Store search in vector and extract content

``` r
stringDB.results <- GET(api)
stringDB.results <- content(stringDB.results)

stringDB.results
```

    ## # A tibble: 118 × 13
    ##    stringId_A    stringId_B    preferredName_A preferredName_B ncbiTaxonId score
    ##    <chr>         <chr>         <chr>           <chr>                 <dbl> <dbl>
    ##  1 10090.ENSMUS… 10090.ENSMUS… Akt1            Pgk1                  10090 0.428
    ##  2 10090.ENSMUS… 10090.ENSMUS… Akt1            Pgk1                  10090 0.428
    ##  3 10090.ENSMUS… 10090.ENSMUS… Akt1            Lgals3                10090 0.535
    ##  4 10090.ENSMUS… 10090.ENSMUS… Akt1            Lgals3                10090 0.535
    ##  5 10090.ENSMUS… 10090.ENSMUS… Akt1            Tfrc                  10090 0.569
    ##  6 10090.ENSMUS… 10090.ENSMUS… Akt1            Tfrc                  10090 0.569
    ##  7 10090.ENSMUS… 10090.ENSMUS… Akt1            Bnip3                 10090 0.641
    ##  8 10090.ENSMUS… 10090.ENSMUS… Akt1            Bnip3                 10090 0.641
    ##  9 10090.ENSMUS… 10090.ENSMUS… Akt1            Ldha                  10090 0.664
    ## 10 10090.ENSMUS… 10090.ENSMUS… Akt1            Ldha                  10090 0.664
    ## # … with 108 more rows, and 7 more variables: nscore <dbl>, fscore <dbl>,
    ## #   pscore <dbl>, ascore <dbl>, escore <dbl>, dscore <dbl>, tscore <dbl>
…
``` r
stringDB.results %>% 
  mutate(link_id = 1:n()) %>% 
  dplyr::select(contains(c("string", "preferred")), link_id) %>% 
  pivot_longer(cols = -link_id, names_to = "ID", values_to = "gene") %>% 
  separate(col = ID, into = c("ID", "link")) %>% 
  pivot_wider(names_from = ID, values_from = gene) %>% 
  transmute(stringID = stringId, GeneID = preferredName) %>% 
  distinct() -> linkage

linkage
```

    ## # A tibble: 36 × 2
    ##    stringID                 GeneID
    ##    <chr>                    <chr> 
    ##  1 10090.ENSMUSP00000001780 Akt1  
    ##  2 10090.ENSMUSP00000080302 Pgk1  
    ##  3 10090.ENSMUSP00000114350 Lgals3
    ##  4 10090.ENSMUSP00000023486 Tfrc  
    ##  5 10090.ENSMUSP00000101718 Bnip3 
    ##  6 10090.ENSMUSP00000103267 Ldha  
    ##  7 10090.ENSMUSP00000111103 Met   
    ##  8 10090.ENSMUSP00000032457 Atg7  
    ##  9 10090.ENSMUSP00000040431 Stub1 
    ## 10 10090.ENSMUSP00000065983 Mapk1 
    ## # … with 26 more rows
…
api
```

    ## [1] "https://string-db.org/api/tsv/network?identifiers=Gm20496%0dFzd6%0dG530012D18Rik%0dMir6381%0dGm15821%0dGm17334%0dPsmb9%0dGbp7%0dGm17017%0dGbp5%0dGm19412%0dGbp4%0dGm11626%0dAlg3%0dGbp2%0dGm11131%0dGm43198%0dCcdc8%0dGm47248%0dCyren%0dIigp1%0dGm15657%0dGm49774%0dTex13b%0dPirb%0d4933423P22Rik%0dGm46637%0dIgtp%0dC78334%0dGm15425%0dIrf1%0dPycard%0dTap1&species=10090"

Store search in vector and extract content

``` r
stringDB.results <- GET(api)
stringDB.results <- content(stringDB.results)

stringDB.results
```

    ## # A tibble: 64 × 13
    ##    stringId_A    stringId_B    preferredName_A preferredName_B ncbiTaxonId score
    ##    <chr>         <chr>         <chr>           <chr>                 <dbl> <dbl>
    ##  1 10090.ENSMUS… 10090.ENSMUS… Gbp5            Tap1                  10090 0.436
    ##  2 10090.ENSMUS… 10090.ENSMUS… Gbp5            Tap1                  10090 0.436
    ##  3 10090.ENSMUS… 10090.ENSMUS… Gbp5            Psmb9                 10090 0.469
    ##  4 10090.ENSMUS… 10090.ENSMUS… Gbp5            Psmb9                 10090 0.469
    ##  5 10090.ENSMUS… 10090.ENSMUS… Gbp5            Iigp1                 10090 0.663
    ##  6 10090.ENSMUS… 10090.ENSMUS… Gbp5            Iigp1                 10090 0.663
    ##  7 10090.ENSMUS… 10090.ENSMUS… Gbp5            Igtp                  10090 0.69 
    ##  8 10090.ENSMUS… 10090.ENSMUS… Gbp5            Igtp                  10090 0.69 
    ##  9 10090.ENSMUS… 10090.ENSMUS… Gbp5            Irf1                  10090 0.769
    ## 10 10090.ENSMUS… 10090.ENSMUS… Gbp5            Irf1                  10090 0.769
    ## # … with 54 more rows, and 7 more variables: nscore <dbl>, fscore <dbl>,
    ## #   pscore <dbl>, ascore <dbl>, escore <dbl>, dscore <dbl>, tscore <dbl>
…
